<svg width="64" height="64" viewBox="0 0 64 64" fill="none" xmlns="http://www.w3.org/2000/svg">
<g clip-path="url(#clip0_3452_24576)">
<path d="M31.837 50.427C21.67 50.427 13.399 42.156 13.399 31.989C13.399 21.822 21.67 13.551 31.837 13.551V15.551C22.774 15.551 15.399 22.925 15.399 31.989C15.399 41.053 22.773 48.427 31.837 48.427V50.427Z" fill="black"/>
<path d="M31.837 50.427V48.427C40.901 48.427 48.275 41.053 48.275 31.989C48.275 22.925 40.901 15.551 31.837 15.551V13.551C42.004 13.551 50.275 21.822 50.275 31.989C50.275 42.155 42.004 50.427 31.837 50.427Z" fill="black"/>
<path opacity="0.6" d="M31.837 49.427C22.207 49.427 14.399 41.62 14.399 31.989C14.399 22.358 22.206 14.551 31.837 14.551" fill="black"/>
</g>
<defs>
<clipPath id="clip0_3452_24576">
<rect width="64" height="64" fill="black"/>
</clipPath>
</defs>
</svg>
